<svg xmlns="http://www.w3.org/2000/svg" width="12.144" height="19.666" viewBox="0 0 12.144 19.666">
  <path id="ic_keyboard_arrow_down_24px" d="M8.311,7.84l7.522,7.506L23.355,7.84l2.311,2.311-9.833,9.833L6,10.151Z" transform="translate(19.984 -6) rotate(90)" fill="#fff" opacity="0.68"/>
</svg>
